<?xml version="1.0" encoding="utf-8"?>
<!DOCTYPE eagle SYSTEM "eagle.dtd">
<eagle version="6.6.0">
<drawing>
<settings>
<setting alwaysvectorfont="no"/>
<setting verticaltext="up"/>
</settings>
<grid distance="0.05" unitdist="inch" unit="inch" style="dots" multiple="1" display="yes" altdistance="0.0125" altunitdist="inch" altunit="inch"/>
<layers>
<layer number="1" name="Top" color="4" fill="1" visible="yes" active="yes"/>
<layer number="2" name="Route2" color="1" fill="3" visible="no" active="no"/>
<layer number="3" name="Route3" color="4" fill="3" visible="no" active="no"/>
<layer number="4" name="Route4" color="1" fill="4" visible="no" active="no"/>
<layer number="5" name="Route5" color="4" fill="4" visible="no" active="no"/>
<layer number="6" name="Route6" color="1" fill="8" visible="no" active="no"/>
<layer number="7" name="Route7" color="4" fill="8" visible="no" active="no"/>
<layer number="8" name="Route8" color="1" fill="2" visible="no" active="no"/>
<layer number="9" name="Route9" color="4" fill="2" visible="no" active="no"/>
<layer number="10" name="Route10" color="1" fill="7" visible="no" active="no"/>
<layer number="11" name="Route11" color="4" fill="7" visible="no" active="no"/>
<layer number="12" name="Route12" color="1" fill="5" visible="no" active="no"/>
<layer number="13" name="Route13" color="4" fill="5" visible="no" active="no"/>
<layer number="14" name="Route14" color="1" fill="6" visible="no" active="no"/>
<layer number="15" name="Route15" color="4" fill="6" visible="no" active="no"/>
<layer number="16" name="Bottom" color="1" fill="1" visible="yes" active="yes"/>
<layer number="17" name="Pads" color="2" fill="1" visible="yes" active="yes"/>
<layer number="18" name="Vias" color="2" fill="1" visible="yes" active="yes"/>
<layer number="19" name="Unrouted" color="6" fill="1" visible="yes" active="yes"/>
<layer number="20" name="Dimension" color="15" fill="1" visible="yes" active="yes"/>
<layer number="21" name="tPlace" color="7" fill="1" visible="yes" active="yes"/>
<layer number="22" name="bPlace" color="7" fill="1" visible="yes" active="yes"/>
<layer number="23" name="tOrigins" color="15" fill="1" visible="yes" active="yes"/>
<layer number="24" name="bOrigins" color="15" fill="1" visible="yes" active="yes"/>
<layer number="25" name="tNames" color="7" fill="1" visible="yes" active="yes"/>
<layer number="26" name="bNames" color="7" fill="1" visible="yes" active="yes"/>
<layer number="27" name="tValues" color="7" fill="1" visible="yes" active="yes"/>
<layer number="28" name="bValues" color="7" fill="1" visible="yes" active="yes"/>
<layer number="29" name="tStop" color="7" fill="3" visible="no" active="yes"/>
<layer number="30" name="bStop" color="7" fill="6" visible="no" active="yes"/>
<layer number="31" name="tCream" color="7" fill="4" visible="no" active="yes"/>
<layer number="32" name="bCream" color="7" fill="5" visible="no" active="yes"/>
<layer number="33" name="tFinish" color="6" fill="3" visible="no" active="yes"/>
<layer number="34" name="bFinish" color="6" fill="6" visible="no" active="yes"/>
<layer number="35" name="tGlue" color="7" fill="4" visible="no" active="yes"/>
<layer number="36" name="bGlue" color="7" fill="5" visible="no" active="yes"/>
<layer number="37" name="tTest" color="7" fill="1" visible="no" active="yes"/>
<layer number="38" name="bTest" color="7" fill="1" visible="no" active="yes"/>
<layer number="39" name="tKeepout" color="4" fill="11" visible="yes" active="yes"/>
<layer number="40" name="bKeepout" color="1" fill="11" visible="yes" active="yes"/>
<layer number="41" name="tRestrict" color="4" fill="10" visible="yes" active="yes"/>
<layer number="42" name="bRestrict" color="1" fill="10" visible="yes" active="yes"/>
<layer number="43" name="vRestrict" color="2" fill="10" visible="yes" active="yes"/>
<layer number="44" name="Drills" color="7" fill="1" visible="no" active="yes"/>
<layer number="45" name="Holes" color="7" fill="1" visible="yes" active="yes"/>
<layer number="46" name="Milling" color="3" fill="1" visible="no" active="yes"/>
<layer number="47" name="Measures" color="7" fill="1" visible="no" active="yes"/>
<layer number="48" name="Document" color="7" fill="1" visible="yes" active="yes"/>
<layer number="49" name="Reference" color="7" fill="1" visible="yes" active="yes"/>
<layer number="50" name="dxf" color="7" fill="1" visible="no" active="no"/>
<layer number="51" name="tDocu" color="7" fill="1" visible="yes" active="yes"/>
<layer number="52" name="bDocu" color="7" fill="1" visible="yes" active="yes"/>
<layer number="53" name="tGND_GNDA" color="7" fill="9" visible="no" active="no"/>
<layer number="54" name="bGND_GNDA" color="1" fill="9" visible="no" active="no"/>
<layer number="56" name="wert" color="7" fill="1" visible="no" active="no"/>
<layer number="91" name="Nets" color="2" fill="1" visible="no" active="no"/>
<layer number="92" name="Busses" color="1" fill="1" visible="no" active="no"/>
<layer number="93" name="Pins" color="2" fill="1" visible="no" active="no"/>
<layer number="94" name="Symbols" color="4" fill="1" visible="no" active="no"/>
<layer number="95" name="Names" color="7" fill="1" visible="no" active="no"/>
<layer number="96" name="Values" color="7" fill="1" visible="no" active="no"/>
<layer number="97" name="Info" color="7" fill="1" visible="no" active="no"/>
<layer number="98" name="Guide" color="6" fill="1" visible="no" active="no"/>
<layer number="99" name="SpiceOrder" color="5" fill="1" visible="no" active="no"/>
<layer number="100" name="Muster" color="7" fill="1" visible="no" active="no"/>
<layer number="101" name="Patch_Top" color="12" fill="4" visible="no" active="yes"/>
<layer number="102" name="Vscore" color="7" fill="1" visible="no" active="yes"/>
<layer number="103" name="tMap" color="7" fill="1" visible="no" active="yes"/>
<layer number="104" name="Name" color="16" fill="1" visible="no" active="yes"/>
<layer number="105" name="tPlate" color="7" fill="1" visible="no" active="yes"/>
<layer number="106" name="bPlate" color="7" fill="1" visible="no" active="yes"/>
<layer number="107" name="Crop" color="7" fill="1" visible="no" active="yes"/>
<layer number="116" name="Patch_BOT" color="9" fill="4" visible="no" active="yes"/>
<layer number="121" name="_tsilk" color="7" fill="1" visible="no" active="yes"/>
<layer number="122" name="_bsilk" color="7" fill="1" visible="no" active="yes"/>
<layer number="125" name="_tNames" color="7" fill="1" visible="no" active="yes"/>
<layer number="144" name="Drill_legend" color="7" fill="1" visible="no" active="yes"/>
<layer number="151" name="HeatSink" color="7" fill="1" visible="no" active="yes"/>
<layer number="199" name="Contour" color="7" fill="1" visible="no" active="yes"/>
<layer number="200" name="200bmp" color="1" fill="10" visible="no" active="yes"/>
<layer number="201" name="201bmp" color="2" fill="10" visible="no" active="yes"/>
<layer number="202" name="202bmp" color="3" fill="10" visible="no" active="yes"/>
<layer number="203" name="203bmp" color="4" fill="10" visible="no" active="yes"/>
<layer number="204" name="204bmp" color="5" fill="10" visible="no" active="yes"/>
<layer number="205" name="205bmp" color="6" fill="10" visible="no" active="yes"/>
<layer number="206" name="206bmp" color="7" fill="10" visible="no" active="yes"/>
<layer number="207" name="207bmp" color="8" fill="10" visible="no" active="yes"/>
<layer number="208" name="208bmp" color="9" fill="10" visible="no" active="yes"/>
<layer number="209" name="209bmp" color="7" fill="1" visible="no" active="yes"/>
<layer number="210" name="210bmp" color="7" fill="1" visible="no" active="yes"/>
<layer number="211" name="211bmp" color="7" fill="1" visible="no" active="yes"/>
<layer number="212" name="212bmp" color="7" fill="1" visible="no" active="yes"/>
<layer number="213" name="213bmp" color="7" fill="1" visible="no" active="yes"/>
<layer number="214" name="214bmp" color="7" fill="1" visible="no" active="yes"/>
<layer number="215" name="215bmp" color="7" fill="1" visible="no" active="yes"/>
<layer number="216" name="216bmp" color="7" fill="1" visible="no" active="yes"/>
<layer number="217" name="217bmp" color="18" fill="1" visible="no" active="no"/>
<layer number="218" name="218bmp" color="19" fill="1" visible="no" active="no"/>
<layer number="219" name="219bmp" color="20" fill="1" visible="no" active="no"/>
<layer number="220" name="220bmp" color="21" fill="1" visible="no" active="no"/>
<layer number="221" name="221bmp" color="22" fill="1" visible="no" active="no"/>
<layer number="222" name="222bmp" color="23" fill="1" visible="no" active="no"/>
<layer number="223" name="223bmp" color="24" fill="1" visible="no" active="no"/>
<layer number="224" name="224bmp" color="25" fill="1" visible="no" active="no"/>
<layer number="250" name="Descript" color="3" fill="1" visible="no" active="no"/>
<layer number="251" name="SMDround" color="12" fill="11" visible="no" active="no"/>
<layer number="254" name="cooling" color="7" fill="1" visible="no" active="yes"/>
</layers>
<board>
<plain>
<wire x1="2.54" y1="33.02" x2="88.9" y2="33.02" width="0" layer="20"/>
<wire x1="88.9" y1="33.02" x2="91.44" y2="30.48" width="0" layer="20" curve="-90"/>
<wire x1="91.44" y1="30.48" x2="91.44" y2="2.54" width="0" layer="20"/>
<wire x1="91.44" y1="2.54" x2="88.9" y2="0" width="0" layer="20" curve="-90"/>
<wire x1="88.9" y1="0" x2="2.54" y2="0" width="0" layer="20"/>
<wire x1="2.54" y1="0" x2="0" y2="2.54" width="0" layer="20" curve="-90"/>
<wire x1="0" y1="2.54" x2="0" y2="30.48" width="0" layer="20"/>
<wire x1="0" y1="30.48" x2="2.54" y2="33.02" width="0" layer="20" curve="-90"/>
<hole x="3.81" y="29.21" drill="3.81"/>
<hole x="3.81" y="3.81" drill="3.81"/>
<hole x="87.63" y="29.21" drill="3.81"/>
<hole x="87.63" y="3.81" drill="3.81"/>
<text x="84.1375" y="22.5425" size="1.016" layer="25" font="vector" ratio="10">+5VDC</text>
<text x="84.1375" y="17.4625" size="1.016" layer="25" font="vector" ratio="10">+5VDC</text>
<text x="84.1375" y="12.3825" size="1.016" layer="25" font="vector" ratio="10">+5VDC</text>
<text x="84.1375" y="20.0025" size="1.016" layer="25" font="vector" ratio="10">RET</text>
<text x="84.1375" y="14.9225" size="1.016" layer="25" font="vector" ratio="10">RET</text>
<text x="84.1375" y="9.8425" size="1.016" layer="25" font="vector" ratio="10">RET</text>
<wire x1="7.62" y1="24.13" x2="7.62" y2="8.89" width="0.254" layer="21"/>
<wire x1="7.62" y1="8.89" x2="15.24" y2="8.89" width="0.254" layer="21"/>
<wire x1="15.24" y1="8.89" x2="15.24" y2="24.13" width="0.254" layer="21"/>
<wire x1="15.24" y1="24.13" x2="7.62" y2="24.13" width="0.254" layer="21"/>
<text x="7.62" y="24.765" size="1.016" layer="25" font="vector" ratio="10">J1</text>
<text x="1.5875" y="21.2725" size="1.27" layer="25" font="vector" ratio="10">AC(L)</text>
<text x="1.5875" y="16.1925" size="1.27" layer="25" font="vector" ratio="10">AC(N)</text>
<text x="2.8575" y="11.1125" size="1.27" layer="25" font="vector" ratio="10">GND</text>
<text x="7.62" y="1.27" size="1.4224" layer="25" font="vector" ratio="10">Rev A</text>
<text x="65.0875" y="19.685" size="1.016" layer="25" font="vector" ratio="10">SMBJ30A</text>
<text x="65.0875" y="27.6225" size="0.8128" layer="25" font="vector" ratio="10">220</text>
<text x="8.89" y="30.48" size="1.4224" layer="25" font="vector" ratio="20">SelectTech Services</text>
<text x="16.51" y="1.27" size="1.4224" layer="25" font="vector" ratio="10">2019</text>
<rectangle x1="57.15" y1="13.97" x2="73.66" y2="15.875" layer="1"/>
<rectangle x1="73.66" y1="12.7" x2="76.2" y2="22.86" layer="1"/>
<rectangle x1="73.66" y1="10.16" x2="76.2" y2="20.32" layer="16"/>
<rectangle x1="63.5" y1="9.2075" x2="76.2" y2="11.43" layer="16"/>
<rectangle x1="55.88" y1="17.78" x2="76.2" y2="21.59" layer="16"/>
<rectangle x1="55.88" y1="20.32" x2="60.96" y2="26.67" layer="16"/>
<rectangle x1="60.325" y1="20.32" x2="61.9125" y2="22.5425" layer="16"/>
</plain>
<libraries>
<library name="00-JR">
<packages>
<package name="TRACO_TMPS_10-105">
<wire x1="-19.05" y1="12.7" x2="19.05" y2="12.7" width="0.127" layer="21"/>
<wire x1="19.05" y1="12.7" x2="19.05" y2="-12.7" width="0.127" layer="21"/>
<wire x1="19.05" y1="-12.7" x2="-19.05" y2="-12.7" width="0.127" layer="21"/>
<wire x1="-19.05" y1="-12.7" x2="-19.05" y2="12.7" width="0.127" layer="21"/>
<pad name="P$1" x="-16.51" y="10.16" drill="1.1" shape="square"/>
<pad name="P$2" x="-16.51" y="-8.89" drill="1.1" shape="square"/>
<pad name="P$3" x="16.51" y="10.16" drill="1.1" shape="square"/>
<pad name="P$4" x="16.51" y="-2.54" drill="1.1" shape="square"/>
<text x="-13.97" y="9.525" size="1.016" layer="21" font="vector" ratio="10">2</text>
<text x="-13.97" y="-9.525" size="1.016" layer="21" font="vector" ratio="10">1</text>
<text x="13.335" y="9.525" size="1.016" layer="21" font="vector" ratio="10">3</text>
<text x="13.335" y="-3.175" size="1.016" layer="21" font="vector" ratio="10">4</text>
<text x="-7.62" y="-12.065" size="1.016" layer="21" font="vector" ratio="10">TRACO TMPS 10-105</text>
<text x="-12.065" y="-9.525" size="1.016" layer="21" font="vector" ratio="10">AC(N)</text>
<text x="-11.43" y="9.525" size="1.016" layer="21" font="vector" ratio="10">AC(L)</text>
<text x="7.62" y="-3.175" size="1.016" layer="21" font="vector" ratio="10">VDC+</text>
<text x="7.62" y="9.525" size="1.016" layer="21" font="vector" ratio="10">VDC-</text>
</package>
<package name="JR-PAD-11-061-R">
<pad name="P$1" x="0" y="0" drill="1.5494" diameter="2.794"/>
</package>
</packages>
</library>
<library name="00-SGAMF">
<packages>
<package name="JR-KK-06">
<description>.100" (2.54mm) Center Header - 6 Pin</description>
<wire x1="-7.62" y1="3.175" x2="7.62" y2="3.175" width="0.254" layer="21"/>
<wire x1="7.62" y1="3.175" x2="7.62" y2="1.27" width="0.254" layer="21"/>
<wire x1="7.62" y1="1.27" x2="7.62" y2="-3.175" width="0.254" layer="21"/>
<wire x1="7.62" y1="-3.175" x2="-7.62" y2="-3.175" width="0.254" layer="21"/>
<wire x1="-7.62" y1="-3.175" x2="-7.62" y2="1.27" width="0.254" layer="21"/>
<wire x1="-7.62" y1="1.27" x2="-7.62" y2="3.175" width="0.254" layer="21"/>
<wire x1="-7.62" y1="1.27" x2="7.62" y2="1.27" width="0.254" layer="21"/>
<text x="-7.62" y="3.81" size="1.016" layer="25" ratio="10">&gt;NAME</text>
<text x="-7.62" y="-5.08" size="1.016" layer="27" ratio="10">&gt;VALUE</text>
<pad name="P$1" x="-6.35" y="0" drill="0.889" shape="square"/>
<pad name="P$2" x="-3.81" y="0" drill="0.889" shape="square"/>
<pad name="P$3" x="-1.27" y="0" drill="0.889" shape="square"/>
<pad name="P$4" x="1.27" y="0" drill="0.889" shape="square"/>
<pad name="P$5" x="3.81" y="0" drill="0.889" shape="square"/>
<pad name="P$6" x="6.35" y="0" drill="0.889" shape="square"/>
</package>
<package name="C025-025X050">
<description>&lt;b&gt;CAPACITOR&lt;/b&gt;&lt;p&gt;
grid 2.5 mm, outline 2.5 x 5 mm</description>
<wire x1="-2.159" y1="1.27" x2="2.159" y2="1.27" width="0.1524" layer="21"/>
<wire x1="2.159" y1="-1.27" x2="-2.159" y2="-1.27" width="0.1524" layer="21"/>
<wire x1="2.413" y1="1.016" x2="2.413" y2="-1.016" width="0.1524" layer="21"/>
<wire x1="-2.413" y1="1.016" x2="-2.413" y2="-1.016" width="0.1524" layer="21"/>
<wire x1="2.159" y1="1.27" x2="2.413" y2="1.016" width="0.1524" layer="21" curve="-90"/>
<wire x1="-2.413" y1="1.016" x2="-2.159" y2="1.27" width="0.1524" layer="21" curve="-90"/>
<wire x1="2.159" y1="-1.27" x2="2.413" y2="-1.016" width="0.1524" layer="21" curve="90"/>
<wire x1="-2.413" y1="-1.016" x2="-2.159" y2="-1.27" width="0.1524" layer="21" curve="90"/>
<wire x1="0.762" y1="0" x2="0.381" y2="0" width="0.1524" layer="51"/>
<wire x1="0.381" y1="0" x2="0.254" y2="0" width="0.1524" layer="21"/>
<wire x1="0.254" y1="0" x2="0.254" y2="0.762" width="0.254" layer="21"/>
<wire x1="0.254" y1="0" x2="0.254" y2="-0.762" width="0.254" layer="21"/>
<wire x1="-0.254" y1="0.762" x2="-0.254" y2="0" width="0.254" layer="21"/>
<wire x1="-0.254" y1="0" x2="-0.254" y2="-0.762" width="0.254" layer="21"/>
<wire x1="-0.254" y1="0" x2="-0.381" y2="0" width="0.1524" layer="21"/>
<wire x1="-0.381" y1="0" x2="-0.762" y2="0" width="0.1524" layer="51"/>
<pad name="1" x="-1.27" y="0" drill="0.8128" shape="octagon"/>
<pad name="2" x="1.27" y="0" drill="0.8128" shape="octagon"/>
<text x="-2.286" y="1.524" size="1.27" layer="25" ratio="10">&gt;NAME</text>
<text x="-2.286" y="-2.794" size="1.27" layer="27" ratio="10">&gt;VALUE</text>
</package>
<package name="0204/5">
<description>&lt;b&gt;RESISTOR&lt;/b&gt;&lt;p&gt;
type 0204, grid 5 mm</description>
<wire x1="2.54" y1="0" x2="2.032" y2="0" width="0.508" layer="51"/>
<wire x1="-2.54" y1="0" x2="-2.032" y2="0" width="0.508" layer="51"/>
<wire x1="-1.778" y1="0.635" x2="-1.524" y2="0.889" width="0.1524" layer="21" curve="-90"/>
<wire x1="-1.778" y1="-0.635" x2="-1.524" y2="-0.889" width="0.1524" layer="21" curve="90"/>
<wire x1="1.524" y1="-0.889" x2="1.778" y2="-0.635" width="0.1524" layer="21" curve="90"/>
<wire x1="1.524" y1="0.889" x2="1.778" y2="0.635" width="0.1524" layer="21" curve="-90"/>
<wire x1="-1.778" y1="-0.635" x2="-1.778" y2="0.635" width="0.1524" layer="51"/>
<wire x1="-1.524" y1="0.889" x2="-1.27" y2="0.889" width="0.1524" layer="21"/>
<wire x1="-1.143" y1="0.762" x2="-1.27" y2="0.889" width="0.1524" layer="21"/>
<wire x1="-1.524" y1="-0.889" x2="-1.27" y2="-0.889" width="0.1524" layer="21"/>
<wire x1="-1.143" y1="-0.762" x2="-1.27" y2="-0.889" width="0.1524" layer="21"/>
<wire x1="1.143" y1="0.762" x2="1.27" y2="0.889" width="0.1524" layer="21"/>
<wire x1="1.143" y1="0.762" x2="-1.143" y2="0.762" width="0.1524" layer="21"/>
<wire x1="1.143" y1="-0.762" x2="1.27" y2="-0.889" width="0.1524" layer="21"/>
<wire x1="1.143" y1="-0.762" x2="-1.143" y2="-0.762" width="0.1524" layer="21"/>
<wire x1="1.524" y1="0.889" x2="1.27" y2="0.889" width="0.1524" layer="21"/>
<wire x1="1.524" y1="-0.889" x2="1.27" y2="-0.889" width="0.1524" layer="21"/>
<wire x1="1.778" y1="-0.635" x2="1.778" y2="0.635" width="0.1524" layer="51"/>
<pad name="1" x="-2.54" y="0" drill="0.8128" shape="octagon"/>
<pad name="2" x="2.54" y="0" drill="0.8128" shape="octagon"/>
<text x="-2.0066" y="1.1684" size="0.9906" layer="25" ratio="10">&gt;NAME</text>
<text x="-2.1336" y="-2.3114" size="0.9906" layer="27" ratio="10">&gt;VALUE</text>
<rectangle x1="-2.032" y1="-0.254" x2="-1.778" y2="0.254" layer="51"/>
<rectangle x1="1.778" y1="-0.254" x2="2.032" y2="0.254" layer="51"/>
</package>
<package name="LED3MM">
<description>&lt;B&gt;LED&lt;/B&gt;&lt;p&gt;
3 mm, round</description>
<wire x1="1.5748" y1="-1.27" x2="1.5748" y2="1.27" width="0.254" layer="51"/>
<wire x1="-1.524" y1="0" x2="-1.1708" y2="0.9756" width="0.1524" layer="51" curve="-39.80361"/>
<wire x1="-1.524" y1="0" x2="-1.1391" y2="-1.0125" width="0.1524" layer="51" curve="41.633208"/>
<wire x1="1.1571" y1="0.9918" x2="1.524" y2="0" width="0.1524" layer="51" curve="-40.601165"/>
<wire x1="1.1708" y1="-0.9756" x2="1.524" y2="0" width="0.1524" layer="51" curve="39.80361"/>
<wire x1="0" y1="1.524" x2="1.2401" y2="0.8858" width="0.1524" layer="21" curve="-54.461337"/>
<wire x1="-1.2192" y1="0.9144" x2="0" y2="1.524" width="0.1524" layer="21" curve="-53.130102"/>
<wire x1="0" y1="-1.524" x2="1.203" y2="-0.9356" width="0.1524" layer="21" curve="52.126876"/>
<wire x1="-1.203" y1="-0.9356" x2="0" y2="-1.524" width="0.1524" layer="21" curve="52.126876"/>
<wire x1="-0.635" y1="0" x2="0" y2="0.635" width="0.1524" layer="51" curve="-90"/>
<wire x1="-1.016" y1="0" x2="0" y2="1.016" width="0.1524" layer="51" curve="-90"/>
<wire x1="0" y1="-0.635" x2="0.635" y2="0" width="0.1524" layer="51" curve="90"/>
<wire x1="0" y1="-1.016" x2="1.016" y2="0" width="0.1524" layer="51" curve="90"/>
<wire x1="0" y1="2.032" x2="1.561" y2="1.3009" width="0.254" layer="21" curve="-50.193108"/>
<wire x1="-1.7929" y1="0.9562" x2="0" y2="2.032" width="0.254" layer="21" curve="-61.926949"/>
<wire x1="0" y1="-2.032" x2="1.5512" y2="-1.3126" width="0.254" layer="21" curve="49.763022"/>
<wire x1="-1.7643" y1="-1.0082" x2="0" y2="-2.032" width="0.254" layer="21" curve="60.255215"/>
<wire x1="-2.032" y1="0" x2="-1.7891" y2="0.9634" width="0.254" layer="51" curve="-28.301701"/>
<wire x1="-2.032" y1="0" x2="-1.7306" y2="-1.065" width="0.254" layer="51" curve="31.60822"/>
<pad name="A" x="-1.27" y="0" drill="0.8128" shape="octagon"/>
<pad name="K" x="1.27" y="0" drill="0.8128" shape="octagon"/>
<text x="1.905" y="0.381" size="1.27" layer="25" ratio="10">&gt;NAME</text>
<text x="1.905" y="-1.651" size="1.27" layer="27" ratio="10">&gt;VALUE</text>
</package>
<package name="E2,5-6">
<description>&lt;b&gt;ELECTROLYTIC CAPACITOR&lt;/b&gt;&lt;p&gt;
grid 2.54 mm, diameter 6 mm</description>
<wire x1="-2.032" y1="1.27" x2="-1.651" y2="1.27" width="0.1524" layer="21"/>
<wire x1="-1.651" y1="0.889" x2="-1.651" y2="1.27" width="0.1524" layer="21"/>
<wire x1="-1.651" y1="1.27" x2="-1.27" y2="1.27" width="0.1524" layer="21"/>
<wire x1="-1.651" y1="1.27" x2="-1.651" y2="1.651" width="0.1524" layer="21"/>
<wire x1="-1.651" y1="0" x2="-0.762" y2="0" width="0.1524" layer="51"/>
<wire x1="-0.762" y1="0" x2="-0.762" y2="-1.27" width="0.1524" layer="51"/>
<wire x1="-0.762" y1="-1.27" x2="-0.254" y2="-1.27" width="0.1524" layer="51"/>
<wire x1="-0.254" y1="-1.27" x2="-0.254" y2="1.27" width="0.1524" layer="51"/>
<wire x1="-0.254" y1="1.27" x2="-0.762" y2="1.27" width="0.1524" layer="51"/>
<wire x1="-0.762" y1="1.27" x2="-0.762" y2="0" width="0.1524" layer="51"/>
<wire x1="0.635" y1="0" x2="1.651" y2="0" width="0.1524" layer="51"/>
<circle x="0" y="0" radius="2.794" width="0.1524" layer="21"/>
<pad name="-" x="1.27" y="0" drill="0.8128" diameter="1.6002" shape="octagon"/>
<pad name="+" x="-1.27" y="0" drill="0.8128" diameter="1.6002"/>
<text x="2.667" y="1.524" size="1.27" layer="25" ratio="10">&gt;NAME</text>
<text x="2.667" y="-2.667" size="1.27" layer="27" ratio="10">&gt;VALUE</text>
<rectangle x1="0.254" y1="-1.27" x2="0.762" y2="1.27" layer="51"/>
</package>
</packages>
</library>
<library name="diode">
<description>&lt;b&gt;Diodes&lt;/b&gt;&lt;p&gt;
Based on the following sources:
&lt;ul&gt;
&lt;li&gt;Motorola : www.onsemi.com
&lt;li&gt;Fairchild : www.fairchildsemi.com
&lt;li&gt;Philips : www.semiconductors.com
&lt;li&gt;Vishay : www.vishay.de
&lt;/ul&gt;
&lt;author&gt;Created by librarian@cadsoft.de&lt;/author&gt;</description>
<packages>
<package name="DO214AA">
<description>&lt;b&gt;DIODE&lt;/b&gt;</description>
<wire x1="-2.4" y1="1.1" x2="2.4" y2="1.1" width="0.254" layer="51"/>
<wire x1="2.4" y1="1.1" x2="2.4" y2="-1.1" width="0.254" layer="51"/>
<wire x1="2.4" y1="-1.1" x2="-2.4" y2="-1.1" width="0.254" layer="51"/>
<wire x1="-2.4" y1="-1.1" x2="-2.4" y2="1.1" width="0.254" layer="51"/>
<wire x1="-1.2" y1="0" x2="0.05" y2="0.7" width="0.254" layer="21"/>
<wire x1="0.05" y1="0.7" x2="0.05" y2="-0.7" width="0.254" layer="21"/>
<wire x1="0.05" y1="-0.7" x2="-1.2" y2="0" width="0.254" layer="21"/>
<smd name="C" x="-2.55" y="0" dx="1.8" dy="2.2" layer="1"/>
<smd name="A" x="2.55" y="0" dx="1.8" dy="2.2" layer="1"/>
<text x="-2.64" y="1.436" size="1.27" layer="25" ratio="10">&gt;NAME</text>
<text x="-2.64" y="-2.706" size="1.27" layer="27" ratio="10">&gt;VALUE</text>
<rectangle x1="-2.75" y1="-0.7" x2="-2.5" y2="0.65" layer="51"/>
<rectangle x1="2.5" y1="-0.7" x2="2.75" y2="0.65" layer="51"/>
<rectangle x1="-1.4" y1="-1.05" x2="-1.1" y2="1.05" layer="21"/>
</package>
</packages>
</library>
</libraries>
<attributes>
</attributes>
<variantdefs>
</variantdefs>
<classes>
<class number="0" name="default" width="0" drill="0">
</class>
</classes>
<designrules name="default">
<description language="de">&lt;b&gt;EAGLE Design Rules&lt;/b&gt;
&lt;p&gt;
Die Standard-Design-Rules sind so gewählt, dass sie für 
die meisten Anwendungen passen. Sollte ihre Platine 
besondere Anforderungen haben, treffen Sie die erforderlichen
Einstellungen hier und speichern die Design Rules unter 
einem neuen Namen ab.</description>
<description language="en">&lt;b&gt;EAGLE Design Rules&lt;/b&gt;
&lt;p&gt;
The default Design Rules have been set to cover
a wide range of applications. Your particular design
may have different requirements, so please make the
necessary adjustments and save your customized
design rules under a new name.</description>
<param name="layerSetup" value="(1*16)"/>
<param name="mtCopper" value="0.035mm 0.035mm 0.035mm 0.035mm 0.035mm 0.035mm 0.035mm 0.035mm 0.035mm 0.035mm 0.035mm 0.035mm 0.035mm 0.035mm 0.035mm 0.035mm"/>
<param name="mtIsolate" value="1.5mm 0.15mm 0.2mm 0.15mm 0.2mm 0.15mm 0.2mm 0.15mm 0.2mm 0.15mm 0.2mm 0.15mm 0.2mm 0.15mm 0.2mm"/>
<param name="mdWireWire" value="8mil"/>
<param name="mdWirePad" value="8mil"/>
<param name="mdWireVia" value="8mil"/>
<param name="mdPadPad" value="8mil"/>
<param name="mdPadVia" value="8mil"/>
<param name="mdViaVia" value="8mil"/>
<param name="mdSmdPad" value="8mil"/>
<param name="mdSmdVia" value="8mil"/>
<param name="mdSmdSmd" value="8mil"/>
<param name="mdViaViaSameLayer" value="8mil"/>
<param name="mnLayersViaInSmd" value="2"/>
<param name="mdCopperDimension" value="40mil"/>
<param name="mdDrill" value="8mil"/>
<param name="mdSmdStop" value="0mil"/>
<param name="msWidth" value="10mil"/>
<param name="msDrill" value="24mil"/>
<param name="msMicroVia" value="9.99mm"/>
<param name="msBlindViaRatio" value="0.5"/>
<param name="rvPadTop" value="0.25"/>
<param name="rvPadInner" value="0.25"/>
<param name="rvPadBottom" value="0.25"/>
<param name="rvViaOuter" value="0.25"/>
<param name="rvViaInner" value="0.25"/>
<param name="rvMicroViaOuter" value="0.25"/>
<param name="rvMicroViaInner" value="0.25"/>
<param name="rlMinPadTop" value="10mil"/>
<param name="rlMaxPadTop" value="20mil"/>
<param name="rlMinPadInner" value="10mil"/>
<param name="rlMaxPadInner" value="20mil"/>
<param name="rlMinPadBottom" value="10mil"/>
<param name="rlMaxPadBottom" value="20mil"/>
<param name="rlMinViaOuter" value="8mil"/>
<param name="rlMaxViaOuter" value="20mil"/>
<param name="rlMinViaInner" value="8mil"/>
<param name="rlMaxViaInner" value="20mil"/>
<param name="rlMinMicroViaOuter" value="4mil"/>
<param name="rlMaxMicroViaOuter" value="20mil"/>
<param name="rlMinMicroViaInner" value="4mil"/>
<param name="rlMaxMicroViaInner" value="20mil"/>
<param name="psTop" value="-1"/>
<param name="psBottom" value="-1"/>
<param name="psFirst" value="-1"/>
<param name="psElongationLong" value="100"/>
<param name="psElongationOffset" value="100"/>
<param name="mvStopFrame" value="1"/>
<param name="mvCreamFrame" value="0"/>
<param name="mlMinStopFrame" value="4mil"/>
<param name="mlMaxStopFrame" value="4mil"/>
<param name="mlMinCreamFrame" value="0mil"/>
<param name="mlMaxCreamFrame" value="0mil"/>
<param name="mlViaStopLimit" value="0mil"/>
<param name="srRoundness" value="0"/>
<param name="srMinRoundness" value="0mil"/>
<param name="srMaxRoundness" value="0mil"/>
<param name="slThermalIsolate" value="10mil"/>
<param name="slThermalsForVias" value="0"/>
<param name="dpMaxLengthDifference" value="10mm"/>
<param name="dpGapFactor" value="2.5"/>
<param name="checkGrid" value="0"/>
<param name="checkAngle" value="0"/>
<param name="checkFont" value="1"/>
<param name="checkRestrict" value="1"/>
<param name="useDiameter" value="13"/>
<param name="maxErrors" value="50"/>
</designrules>
<autorouter>
<pass name="Default">
<param name="RoutingGrid" value="50mil"/>
<param name="tpViaShape" value="round"/>
<param name="PrefDir.1" value="|"/>
<param name="PrefDir.2" value="0"/>
<param name="PrefDir.3" value="0"/>
<param name="PrefDir.4" value="0"/>
<param name="PrefDir.5" value="0"/>
<param name="PrefDir.6" value="0"/>
<param name="PrefDir.7" value="0"/>
<param name="PrefDir.8" value="0"/>
<param name="PrefDir.9" value="0"/>
<param name="PrefDir.10" value="0"/>
<param name="PrefDir.11" value="0"/>
<param name="PrefDir.12" value="0"/>
<param name="PrefDir.13" value="0"/>
<param name="PrefDir.14" value="0"/>
<param name="PrefDir.15" value="0"/>
<param name="PrefDir.16" value="-"/>
<param name="cfVia" value="8"/>
<param name="cfNonPref" value="5"/>
<param name="cfChangeDir" value="2"/>
<param name="cfOrthStep" value="2"/>
<param name="cfDiagStep" value="3"/>
<param name="cfExtdStep" value="0"/>
<param name="cfBonusStep" value="1"/>
<param name="cfMalusStep" value="1"/>
<param name="cfPadImpact" value="4"/>
<param name="cfSmdImpact" value="4"/>
<param name="cfBusImpact" value="0"/>
<param name="cfHugging" value="3"/>
<param name="cfAvoid" value="4"/>
<param name="cfPolygon" value="10"/>
<param name="cfBase.1" value="0"/>
<param name="cfBase.2" value="1"/>
<param name="cfBase.3" value="1"/>
<param name="cfBase.4" value="1"/>
<param name="cfBase.5" value="1"/>
<param name="cfBase.6" value="1"/>
<param name="cfBase.7" value="1"/>
<param name="cfBase.8" value="1"/>
<param name="cfBase.9" value="1"/>
<param name="cfBase.10" value="1"/>
<param name="cfBase.11" value="1"/>
<param name="cfBase.12" value="1"/>
<param name="cfBase.13" value="1"/>
<param name="cfBase.14" value="1"/>
<param name="cfBase.15" value="1"/>
<param name="cfBase.16" value="0"/>
<param name="mnVias" value="20"/>
<param name="mnSegments" value="9999"/>
<param name="mnExtdSteps" value="9999"/>
<param name="mnRipupLevel" value="10"/>
<param name="mnRipupSteps" value="100"/>
<param name="mnRipupTotal" value="100"/>
</pass>
<pass name="Follow-me" refer="Default" active="yes">
</pass>
<pass name="Busses" refer="Default" active="yes">
<param name="cfNonPref" value="4"/>
<param name="cfBusImpact" value="4"/>
<param name="cfHugging" value="0"/>
<param name="mnVias" value="0"/>
</pass>
<pass name="Route" refer="Default" active="yes">
</pass>
<pass name="Optimize1" refer="Default" active="yes">
<param name="cfVia" value="99"/>
<param name="cfExtdStep" value="10"/>
<param name="cfHugging" value="1"/>
<param name="mnExtdSteps" value="1"/>
<param name="mnRipupLevel" value="0"/>
</pass>
<pass name="Optimize2" refer="Optimize1" active="yes">
<param name="cfNonPref" value="0"/>
<param name="cfChangeDir" value="6"/>
<param name="cfExtdStep" value="0"/>
<param name="cfBonusStep" value="2"/>
<param name="cfMalusStep" value="2"/>
<param name="cfPadImpact" value="2"/>
<param name="cfSmdImpact" value="2"/>
<param name="cfHugging" value="0"/>
</pass>
<pass name="Optimize3" refer="Optimize2" active="yes">
<param name="cfChangeDir" value="8"/>
<param name="cfPadImpact" value="0"/>
<param name="cfSmdImpact" value="0"/>
</pass>
<pass name="Optimize4" refer="Optimize3" active="yes">
<param name="cfChangeDir" value="25"/>
</pass>
</autorouter>
<elements>
<element name="E$1" library="00-JR" package="TRACO_TMPS_10-105" value="" x="40.64" y="16.51" locked="yes" smashed="yes"/>
<element name="J2" library="00-SGAMF" package="JR-KK-06" value="" x="78.74" y="16.51" locked="yes" smashed="yes" rot="R90">
<attribute name="NAME" x="75.565" y="24.4475" size="1.016" layer="25" ratio="10"/>
<attribute name="VALUE" x="83.82" y="8.89" size="1.016" layer="27" ratio="10" rot="R90"/>
</element>
<element name="E$2" library="00-JR" package="JR-PAD-11-061-R" value="" x="11.43" y="16.51" locked="yes"/>
<element name="E$3" library="00-JR" package="JR-PAD-11-061-R" value="" x="11.43" y="21.59" locked="yes"/>
<element name="E$4" library="00-JR" package="JR-PAD-11-061-R" value="" x="11.43" y="11.43" locked="yes"/>
<element name="C1" library="00-SGAMF" package="C025-025X050" value="" x="63.5" y="12.7" locked="yes" smashed="yes" rot="R270">
<attribute name="NAME" x="62.8015" y="8.8265" size="1.016" layer="25" font="vector" ratio="10"/>
<attribute name="VALUE" x="60.706" y="14.986" size="1.27" layer="27" ratio="10" rot="R270"/>
</element>
<element name="D1" library="diode" package="DO214AA" value="" x="63.5" y="20.32" locked="yes" smashed="yes" rot="R90">
<attribute name="NAME" x="64.9875" y="21.121" size="1.016" layer="25" font="vector" ratio="10"/>
<attribute name="VALUE" x="66.206" y="17.68" size="1.27" layer="27" ratio="10" rot="R90"/>
</element>
<element name="R1" library="00-SGAMF" package="0204/5" value="" x="66.04" y="27.94" locked="yes" smashed="yes">
<attribute name="NAME" x="65.3034" y="29.1084" size="1.016" layer="25" font="vector" ratio="10"/>
<attribute name="VALUE" x="63.9064" y="25.6286" size="0.9906" layer="27" ratio="10"/>
</element>
<element name="LED" library="00-SGAMF" package="LED3MM" value="" x="72.39" y="27.94" locked="yes" smashed="yes" rot="R180">
<attribute name="NAME" x="71.12" y="30.5435" size="1.016" layer="25" font="vector" ratio="10"/>
<attribute name="VALUE" x="70.485" y="29.591" size="1.27" layer="27" ratio="10" rot="R180"/>
</element>
<element name="C2" library="00-SGAMF" package="E2,5-6" value="" x="69.215" y="12.7" locked="yes" smashed="yes" rot="R270">
<attribute name="NAME" x="68.707" y="8.1915" size="1.016" layer="25" font="vector" ratio="10"/>
<attribute name="VALUE" x="66.548" y="10.033" size="1.27" layer="27" ratio="10" rot="R270"/>
</element>
</elements>
<signals>
<signal name="S$3">
<contactref element="E$1" pad="P$1"/>
<contactref element="E$3" pad="P$1"/>
<wire x1="11.43" y1="21.59" x2="19.05" y2="21.59" width="2.54" layer="16"/>
<wire x1="19.05" y1="21.59" x2="24.13" y2="26.67" width="2.54" layer="16"/>
<wire x1="11.43" y1="21.59" x2="19.05" y2="21.59" width="2.54" layer="1"/>
<wire x1="19.05" y1="21.59" x2="24.13" y2="26.67" width="2.54" layer="1"/>
</signal>
<signal name="S$4">
<contactref element="E$1" pad="P$2"/>
<contactref element="E$2" pad="P$1"/>
<wire x1="11.43" y1="16.51" x2="15.24" y2="16.51" width="2.54" layer="16"/>
<wire x1="15.24" y1="16.51" x2="24.13" y2="7.62" width="2.54" layer="16"/>
<wire x1="11.43" y1="16.51" x2="15.24" y2="16.51" width="2.54" layer="1"/>
<wire x1="15.24" y1="16.51" x2="24.13" y2="7.62" width="2.54" layer="1"/>
</signal>
<signal name="S$5">
<contactref element="R1" pad="2"/>
<contactref element="LED" pad="K"/>
<wire x1="68.58" y1="27.94" x2="71.12" y2="27.94" width="0.4064" layer="16"/>
</signal>
<signal name="S$7">
<contactref element="D1" pad="C"/>
<contactref element="E$1" pad="P$4"/>
<contactref element="C1" pad="1"/>
<contactref element="C2" pad="+"/>
<contactref element="J2" pad="P$6"/>
<contactref element="J2" pad="P$4"/>
<contactref element="J2" pad="P$2"/>
<wire x1="73.66" y1="22.86" x2="73.66" y2="17.78" width="1.4224" layer="1"/>
<wire x1="73.66" y1="17.78" x2="73.66" y2="13.97" width="1.4224" layer="1"/>
<wire x1="73.66" y1="13.97" x2="73.66" y2="12.7" width="1.4224" layer="1"/>
<wire x1="73.66" y1="12.7" x2="78.74" y2="12.7" width="1.4224" layer="1"/>
<wire x1="73.66" y1="22.86" x2="78.74" y2="22.86" width="1.4224" layer="1"/>
<wire x1="78.74" y1="17.78" x2="73.66" y2="17.78" width="1.4224" layer="1"/>
<wire x1="57.15" y1="13.97" x2="63.5" y2="13.97" width="1.4224" layer="1"/>
<wire x1="63.5" y1="13.97" x2="63.5" y2="17.77" width="1.4224" layer="1"/>
<wire x1="63.5" y1="13.97" x2="69.215" y2="13.97" width="1.4224" layer="1"/>
<wire x1="69.215" y1="13.97" x2="73.66" y2="13.97" width="1.4224" layer="1"/>
<contactref element="LED" pad="A"/>
<wire x1="73.66" y1="27.94" x2="73.66" y2="22.86" width="0.4064" layer="1"/>
</signal>
<signal name="S$2">
<wire x1="29.21" y1="2.54" x2="45.72" y2="19.05" width="2.54" layer="16"/>
<wire x1="20.32" y1="2.54" x2="29.21" y2="2.54" width="2.54" layer="16"/>
<contactref element="E$4" pad="P$1"/>
<wire x1="11.43" y1="11.43" x2="20.32" y2="2.54" width="2.54" layer="16"/>
<wire x1="45.72" y1="19.05" x2="58.42" y2="19.05" width="2.54" layer="16"/>
</signal>
<signal name="S$1">
<contactref element="R1" pad="1"/>
<contactref element="E$1" pad="P$3"/>
<contactref element="J2" pad="P$1"/>
<contactref element="J2" pad="P$3"/>
<contactref element="J2" pad="P$5"/>
<wire x1="73.66" y1="15.24" x2="73.66" y2="11.43" width="1.4224" layer="16"/>
<wire x1="73.66" y1="11.43" x2="73.66" y2="10.16" width="1.4224" layer="16"/>
<wire x1="73.66" y1="10.16" x2="78.74" y2="10.16" width="1.4224" layer="16"/>
<wire x1="78.74" y1="15.24" x2="73.66" y2="15.24" width="1.4224" layer="16"/>
<wire x1="78.74" y1="20.32" x2="73.66" y2="20.32" width="1.4224" layer="16"/>
<wire x1="73.66" y1="20.32" x2="73.66" y2="15.24" width="1.4224" layer="16"/>
<contactref element="C2" pad="-"/>
<contactref element="C1" pad="2"/>
<contactref element="D1" pad="A"/>
<wire x1="57.15" y1="26.67" x2="60.96" y2="22.86" width="1.4224" layer="1"/>
<wire x1="60.96" y1="22.86" x2="63.49" y2="22.86" width="1.4224" layer="1"/>
<wire x1="63.49" y1="22.86" x2="63.5" y2="22.87" width="1.016" layer="1"/>
<wire x1="63.5" y1="22.87" x2="63.5" y2="27.94" width="1.4224" layer="1"/>
<wire x1="63.5" y1="11.43" x2="69.215" y2="11.43" width="1.4224" layer="16"/>
<wire x1="69.215" y1="11.43" x2="73.66" y2="11.43" width="1.4224" layer="16"/>
<wire x1="73.66" y1="20.32" x2="63.5" y2="20.32" width="1.4224" layer="16"/>
<wire x1="63.5" y1="20.32" x2="57.15" y2="26.67" width="1.4224" layer="16"/>
</signal>
</signals>
</board>
</drawing>
</eagle>
